Causal impact study
…
what group to pick as a control? Assuming the plot above is for the time period that is right before the experiment, group that is very similar to other groups (well correlated with the study group as well), is a good candidate.

4. Basic statistics

datastat<-as.data.frame
groupmydata$Month_Yr <- format(groupmydata$ga.date, "%Y-%m")
datastat<-group_by(groupmydata, Month_Yr , group) %>% summarise(avg_values=mean(counts), std_values=sd(counts, na.rm=TRUE))
datastat

## Source: local data frame [100 x 4]
## Groups: Month_Yr [?]
## 
##    Month_Yr  group avg_values std_values
##       <chr> <fctr>      <dbl>      <dbl>
## 1   2015-04      1   35.13333   9.058177
## 2   2015-04      2   43.76667  13.255274
## 3   2015-04      3   22.83333   7.575293
## 4   2015-04      4   31.33333  11.844782
## 5   2015-04      5   29.00000   7.002463
## 6   2015-05      1   36.32258  15.149009
## 7   2015-05      2   46.19355  27.208356
## 8   2015-05      3   29.41935  21.153052
## 9   2015-05      4   27.25806  12.492578
## 10  2015-05      5   31.25806  15.899618
## # ... with 90 more rows
…
